{
  "images" : [
    {
      "idiom" : "universal",
      "filename" : "9d04f6f8-287f-4051-9fe3-d8001bfa68da.png",
      "scale" : "1x"
    },
    {
      "idiom" : "universal",
      "scale" : "2x"
    },
    {
      "idiom" : "universal",
      "scale" : "3x"
    }
  ],
  "info" : {
    "version" : 1,
    "author" : "xcode"
  }
}